2018/10/28/blogging-for-fun-profit/feed/index.html,1707175179
2018/10/28/blogging-for-fun-profit/index.html,2116944210
2018/10/28/index.html,1471883743
2018/10/29/index.html,3962206296
2018/10/29/post-comments/feed/index.html,129071611
2018/10/29/post-comments/index.html,591409555
2018/10/30/gallery-post/feed/index.html,1845253202
2018/10/30/gallery-post/index.html,3522543262
2018/10/30/gallery-post/rasberries/index.html,2527451713
2018/10/30/index.html,1349475204
2018/10/31/index.html,3721976390
2018/10/31/responsive-theme/feed/index.html,1108296430
2018/10/31/responsive-theme/index.html,256430022
2018/10/index.html,3323926837
2018/11/01/change-your-look/feed/index.html,2854625447
2018/11/01/change-your-look/index.html,3754614115
2018/11/01/index.html,1617604418
2018/11/02/awesome-post/berries/index.html,2540305651
2018/11/02/awesome-post/feed/index.html,613172250
2018/11/02/awesome-post/index.html,3698817777
2018/11/02/index.html,3795287042
2018/11/03/index.html,460823857
2018/11/03/standard-post/clothes/index.html,284215047
2018/11/03/standard-post/feed/index.html,998349835
2018/11/03/standard-post/index.html,4000179207
2018/11/index.html,1884792610
2018/index.html,2080488159
2019/05/05/hello-world/feed/index.html,2095056997
2019/05/05/hello-world/index.html,4118000523
2019/05/05/index.html,2332741735
2019/05/index.html,1561031409
2019/index.html,2268491299
about/index.html,1464951373
above-clouds-2/index.html,4157918850
author/jjtroberts/index.html,1605538500
birds/index.html,2272709490
category/cooking/feed/index.html,439906926
category/cooking/index.html,3361351825
category/cooking/page/1/index.html,3361351825
category/design/feed/index.html,1168457096
category/design/index.html,3946018503
category/design/page/1/index.html,3946018503
category/fashion/feed/index.html,1473319326
category/fashion/index.html,4108774778
category/fashion/page/1/index.html,4108774778
category/gaming/feed/index.html,3122623117
category/gaming/index.html,239801121
category/gaming/page/1/index.html,239801121
category/news/feed/index.html,2196218034
category/news/index.html,3464096656
category/news/page/1/index.html,3464096656
category/travel/feed/index.html,3746085215
category/travel/index.html,4000717680
category/travel/page/1/index.html,4000717680
category/uncategorized/feed/index.html,1362016915
category/uncategorized/index.html,2510971753
category/uncategorized/page/1/index.html,2510971753
chillin-2/index.html,2597580936
city-blurred-2/index.html,1382975835
comments/feed/index.html,2406160860
contact/index.html,2296000509
feed/index.html,3819565265
horses-2/index.html,2897241010
index.html,4194075653
jellyfish-2/index.html,3835694727
moose-2/index.html,3776690519
ocean/index.html,2355309448
page/1/index.html,4194075653
sample-page/feed/index.html,4114966218
sample-page/index.html,2840094725
sample-page-2/index.html,1092661370
sample-page-2/tools/index.html,2973677006
scooter-2/index.html,3404899478
tag/blogging/feed/index.html,3950104653
tag/blogging/index.html,2233677584
tag/blogging/page/1/index.html,2233677584
tag/cooking/feed/index.html,3458964633
tag/cooking/index.html,1603271410
tag/cooking/page/1/index.html,1603271410
tag/fashion/feed/index.html,1322198501
tag/fashion/index.html,3730806828
tag/fashion/page/1/index.html,3730806828
tag/food/feed/index.html,4263464985
tag/food/index.html,635142273
tag/food/page/1/index.html,635142273
tag/foreign/feed/index.html,3218951356
tag/foreign/index.html,3502940080
tag/foreign/page/1/index.html,3502940080
tag/funny/feed/index.html,1474877456
tag/funny/index.html,4221887222
tag/funny/page/1/index.html,4221887222
tag/images/feed/index.html,2959100184
tag/images/index.html,2224366991
tag/images/page/1/index.html,2224366991
tag/money/feed/index.html,3277810891
tag/money/index.html,2310370801
tag/money/page/1/index.html,2310370801
tag/new/feed/index.html,2346446607
tag/new/index.html,2405802650
tag/new/page/1/index.html,2405802650
tag/random/feed/index.html,519090787
tag/random/index.html,1807351440
tag/random/page/1/index.html,1807351440
tag/video-games/feed/index.html,1937141681
tag/video-games/index.html,2902803524
tag/video-games/page/1/index.html,2902803524
tag/wordpress/feed/index.html,2856209856
tag/wordpress/index.html,3605359082
tag/wordpress/page/1/index.html,3605359082
wp-admin/index.html,934627762
wp-content/themes/author/assets/font-awesome/css/all.css,1321865964
wp-content/themes/author/assets/font-awesome/css/all.min.css,407499989
wp-content/themes/author/assets/font-awesome/css/brands.css,2313739550
wp-content/themes/author/assets/font-awesome/css/brands.min.css,2313739550
wp-content/themes/author/assets/font-awesome/css/fontawesome.css,12949211
wp-content/themes/author/assets/font-awesome/css/fontawesome.min.css,3121337509
wp-content/themes/author/assets/font-awesome/css/regular.css,4203251451
wp-content/themes/author/assets/font-awesome/css/regular.min.css,4203251451
wp-content/themes/author/assets/font-awesome/css/solid.css,2008642995
wp-content/themes/author/assets/font-awesome/css/solid.min.css,2008642995
wp-content/themes/author/assets/font-awesome/css/svg-with-js.css,3645413453
wp-content/themes/author/assets/font-awesome/css/svg-with-js.min.css,527954263
wp-content/themes/author/assets/font-awesome/css/v4-shims.css,4223590127
wp-content/themes/author/assets/font-awesome/css/v4-shims.min.css,965477943
wp-content/themes/author/assets/font-awesome/webfonts/fa-brands-400.eot,3325056665
wp-content/themes/author/assets/font-awesome/webfonts/fa-brands-400.svg,845689260
wp-content/themes/author/assets/font-awesome/webfonts/fa-brands-400.ttf,3204855177
wp-content/themes/author/assets/font-awesome/webfonts/fa-brands-400.woff,3132513105
wp-content/themes/author/assets/font-awesome/webfonts/fa-brands-400.woff2,3320007369
wp-content/themes/author/assets/font-awesome/webfonts/fa-regular-400.eot,2615311288
wp-content/themes/author/assets/font-awesome/webfonts/fa-regular-400.svg,626378496
wp-content/themes/author/assets/font-awesome/webfonts/fa-regular-400.ttf,3610574852
wp-content/themes/author/assets/font-awesome/webfonts/fa-regular-400.woff,1549072352
wp-content/themes/author/assets/font-awesome/webfonts/fa-regular-400.woff2,1022316642
wp-content/themes/author/assets/font-awesome/webfonts/fa-solid-900.eot,2851765226
wp-content/themes/author/assets/font-awesome/webfonts/fa-solid-900.svg,2737848094
wp-content/themes/author/assets/font-awesome/webfonts/fa-solid-900.ttf,3872381722
wp-content/themes/author/assets/font-awesome/webfonts/fa-solid-900.woff,512917657
wp-content/themes/author/assets/font-awesome/webfonts/fa-solid-900.woff2,4146843607
wp-content/themes/author/assets/images/author-pro.gif,3330217186
wp-content/themes/author/assets/images/background-images.png,345021692
wp-content/themes/author/assets/images/background-textures.png,2563453824
wp-content/themes/author/assets/images/bg-texture.png,247743236
wp-content/themes/author/assets/images/custom-colors.png,1829417726
wp-content/themes/author/assets/images/display-controls.png,2270216283
wp-content/themes/author/assets/images/featured-image-size.png,1348046322
wp-content/themes/author/assets/images/featured-sliders.png,3805819540
wp-content/themes/author/assets/images/featured-videos.png,3074986492
wp-content/themes/author/assets/images/fonts.png,1760174320
wp-content/themes/author/assets/images/footer-text.png,1197185680
wp-content/themes/author/assets/images/gray-lines.png,838669376
wp-content/themes/author/assets/images/header-image.png,359187609
wp-content/themes/author/assets/images/page-backgrounds.png,2405627452
wp-content/themes/author/assets/images/reviews.png,1931089966
wp-content/themes/author/assets/images/widget-areas.png,621461864
wp-content/themes/author/dnh/assets/js/main.js,3358185969
wp-content/themes/author/js/build/customizer.js,1731463529
wp-content/themes/author/js/build/customizer.min.js,3894609447
wp-content/themes/author/js/build/html5shiv.min.js,935602636
wp-content/themes/author/js/build/postMessage.min.js,2063066927
wp-content/themes/author/js/build/production.js,3386979182
wp-content/themes/author/js/build/production.min.js,1285826219
wp-content/themes/author/js/build/profile-image-uploader.min.js,940963603
wp-content/themes/author/js/build/respond.min.js,3777560459
wp-content/themes/author/js/customizer.js,237543715
wp-content/themes/author/js/fitvids.js,2751615338
wp-content/themes/author/js/functions.js,2182876584
wp-content/themes/author/js/html5shiv.js,3876138388
wp-content/themes/author/js/multiple-select.js,189564355
wp-content/themes/author/js/postMessage.js,3870916932
wp-content/themes/author/js/respond.js,1080575053
wp-content/themes/author/rtl.css,2628636887
wp-content/themes/author/rtl.min.css,739700961
wp-content/themes/author/screenshot.png,2076621526
wp-content/themes/author/style.css,2530292722
wp-content/themes/author/style.min.css,4247132810
wp-content/themes/author/styles/admin.css,612322113
wp-content/themes/author/styles/admin.min.css,3237213160
wp-content/themes/author/styles/customizer.css,3200099226
wp-content/themes/author/styles/customizer.min.css,125043537
wp-content/themes/author/styles/editor-style.css,4146831367
wp-content/themes/author/styles/multiple-select.png,3093576367
wp-content/uploads/2014/07/berries-150x150.jpg,3520321915
wp-content/uploads/2014/07/berries-300x225.jpg,3960354257
wp-content/uploads/2014/07/berries-768x576.jpg,2383186098
wp-content/uploads/2014/07/berries.jpg,1515713888
wp-content/uploads/2014/07/birds-1024x682.jpg,262036601
wp-content/uploads/2014/07/birds-150x150.jpg,597123708
wp-content/uploads/2014/07/birds-300x200.jpg,936285430
wp-content/uploads/2014/07/birds-768x512.jpg,489397423
wp-content/uploads/2014/07/birds.jpg,1497838187
wp-content/uploads/2014/07/boats-1024x576.jpg,1530946752
wp-content/uploads/2014/07/boats-150x150.jpg,795271337
wp-content/uploads/2014/07/boats-300x169.jpg,924054067
wp-content/uploads/2014/07/boats-768x432.jpg,772936007
wp-content/uploads/2014/07/boats.jpg,3094847162
wp-content/uploads/2014/07/city-3-1024x576.jpg,1611624093
wp-content/uploads/2014/07/city-3-150x150.jpg,3436529349
wp-content/uploads/2014/07/city-3-300x169.jpg,2702362290
wp-content/uploads/2014/07/city-3-768x432.jpg,2583803878
wp-content/uploads/2014/07/city-3.jpg,467519065
wp-content/uploads/2014/07/city-street-1024x674.jpg,361041287
wp-content/uploads/2014/07/city-street-150x150.jpg,1133479868
wp-content/uploads/2014/07/city-street-300x197.jpg,2133284945
wp-content/uploads/2014/07/city-street-768x505.jpg,1413859437
wp-content/uploads/2014/07/city-street.jpg,3669656362
wp-content/uploads/2014/07/clothes-1024x682.jpg,1021233874
wp-content/uploads/2014/07/clothes-150x150.jpg,2123625708
wp-content/uploads/2014/07/clothes-300x200.jpg,3953001614
wp-content/uploads/2014/07/clothes-768x512.jpg,293067936
wp-content/uploads/2014/07/clothes.jpg,1555167084
wp-content/uploads/2014/07/logs-1024x686.jpg,2809516456
wp-content/uploads/2014/07/logs-150x150.jpg,732642322
wp-content/uploads/2014/07/logs-300x201.jpg,418400728
wp-content/uploads/2014/07/logs-768x514.jpg,268225042
wp-content/uploads/2014/07/logs.jpg,1229747778
wp-content/uploads/2014/07/ocean-1024x682.jpg,1288503319
wp-content/uploads/2014/07/ocean-150x150.jpg,3721811138
wp-content/uploads/2014/07/ocean-300x200.jpg,72037312
wp-content/uploads/2014/07/ocean-768x512.jpg,583885612
wp-content/uploads/2014/07/ocean.jpg,203152570
wp-content/uploads/2014/07/pier-1024x680.jpg,638134471
wp-content/uploads/2014/07/pier-150x150.jpg,4272774559
wp-content/uploads/2014/07/pier-300x199.jpg,2727806155
wp-content/uploads/2014/07/pier-768x510.jpg,2907391203
wp-content/uploads/2014/07/pier.jpg,1571775184
wp-content/uploads/2014/07/puppy-1024x613.jpg,1512684854
wp-content/uploads/2014/07/puppy-150x150.jpg,3701278333
wp-content/uploads/2014/07/puppy-300x180.jpg,1444339282
wp-content/uploads/2014/07/puppy-768x460.jpg,1007471816
wp-content/uploads/2014/07/puppy.jpg,222096271
wp-content/uploads/2014/07/rasberries-1024x576.jpg,3457884219
wp-content/uploads/2014/07/rasberries-150x150.jpg,3367747933
wp-content/uploads/2014/07/rasberries-300x169.jpg,558078638
wp-content/uploads/2014/07/rasberries-768x432.jpg,2179288708
wp-content/uploads/2014/07/rasberries.jpg,1364252101
wp-content/uploads/2014/07/teapot-1024x668.jpg,2823712555
wp-content/uploads/2014/07/teapot-150x150.jpg,3511071908
wp-content/uploads/2014/07/teapot-300x196.jpg,3683868426
wp-content/uploads/2014/07/teapot-768x501.jpg,671533402
wp-content/uploads/2014/07/teapot.jpg,254297672
wp-content/uploads/2014/07/tools-1024x682.jpg,2488636574
wp-content/uploads/2014/07/tools-150x150.jpg,2433522296
wp-content/uploads/2014/07/tools-300x200.jpg,4225438489
wp-content/uploads/2014/07/tools-768x512.jpg,487963773
wp-content/uploads/2014/07/tools.jpg,2342954625
wp-content/uploads/2015/02/above-clouds-1024x683.jpeg,621629831
wp-content/uploads/2015/02/above-clouds-150x150.jpeg,656155106
wp-content/uploads/2015/02/above-clouds-300x200.jpeg,1170747211
wp-content/uploads/2015/02/above-clouds-768x512.jpeg,3127049116
wp-content/uploads/2015/02/above-clouds.jpeg,2997128384
wp-content/uploads/2015/02/alley-dusk-1024x683.jpeg,446458501
wp-content/uploads/2015/02/alley-dusk-150x150.jpeg,3397129306
wp-content/uploads/2015/02/alley-dusk-300x200.jpeg,179569291
wp-content/uploads/2015/02/alley-dusk-768x512.jpeg,122881176
wp-content/uploads/2015/02/alley-dusk.jpeg,2937949181
wp-content/uploads/2015/02/chillin-1024x680.jpeg,2345266866
wp-content/uploads/2015/02/chillin-150x150.jpeg,3201367778
wp-content/uploads/2015/02/chillin-300x199.jpeg,3913244482
wp-content/uploads/2015/02/chillin-768x510.jpeg,3015540436
wp-content/uploads/2015/02/chillin.jpeg,3270681495
wp-content/uploads/2015/02/city-blurred-1024x681.jpeg,2692797764
wp-content/uploads/2015/02/city-blurred-150x150.jpeg,3378015991
wp-content/uploads/2015/02/city-blurred-300x200.jpeg,2700786420
wp-content/uploads/2015/02/city-blurred-768x511.jpeg,1030112993
wp-content/uploads/2015/02/city-blurred.jpeg,2500783396
wp-content/uploads/2015/02/forest-1024x683.jpeg,103265172
wp-content/uploads/2015/02/forest-150x150.jpeg,3050524970
wp-content/uploads/2015/02/forest-300x200.jpeg,2058000183
wp-content/uploads/2015/02/forest-768x512.jpeg,292555177
wp-content/uploads/2015/02/forest.jpeg,2579450162
wp-content/uploads/2015/02/horses-1024x684.jpeg,3327687132
wp-content/uploads/2015/02/horses-150x150.jpeg,1342610873
wp-content/uploads/2015/02/horses-300x200.jpeg,1317089516
wp-content/uploads/2015/02/horses-768x513.jpeg,2145440736
wp-content/uploads/2015/02/horses.jpeg,3787322004
wp-content/uploads/2015/02/jellyfish-1024x682.jpeg,2876294954
wp-content/uploads/2015/02/jellyfish-150x150.jpeg,372425731
wp-content/uploads/2015/02/jellyfish-300x200.jpeg,3684569487
wp-content/uploads/2015/02/jellyfish-768x512.jpeg,3736493897
wp-content/uploads/2015/02/jellyfish.jpeg,2184255196
wp-content/uploads/2015/02/logo-neue-website-white-150x32.png,616575869
wp-content/uploads/2015/02/logo-neue-website-white.png,1783350298
wp-content/uploads/2015/02/moose-1024x683.jpeg,338633215
wp-content/uploads/2015/02/moose-150x150.jpeg,2863432822
wp-content/uploads/2015/02/moose-300x200.jpeg,896333021
wp-content/uploads/2015/02/moose-768x512.jpeg,866175510
wp-content/uploads/2015/02/moose.jpeg,3826653440
wp-content/uploads/2015/02/ocean-cliff-1024x683.jpeg,2745074691
wp-content/uploads/2015/02/ocean-cliff-150x150.jpeg,3893988000
wp-content/uploads/2015/02/ocean-cliff-300x200.jpeg,667185665
wp-content/uploads/2015/02/ocean-cliff-768x512.jpeg,3378284889
wp-content/uploads/2015/02/ocean-cliff.jpeg,1372434063
wp-content/uploads/2015/02/purple-volcano-1024x683.jpeg,234245217
wp-content/uploads/2015/02/purple-volcano-150x150.jpeg,3864292138
wp-content/uploads/2015/02/purple-volcano-300x200.jpeg,502335401
wp-content/uploads/2015/02/purple-volcano-768x512.jpeg,1950097372
wp-content/uploads/2015/02/purple-volcano.jpeg,3342130174
wp-content/uploads/2015/02/scooter-1024x683.jpeg,111070540
wp-content/uploads/2015/02/scooter-150x150.jpeg,3813466683
wp-content/uploads/2015/02/scooter-300x200.jpeg,4280198514
wp-content/uploads/2015/02/scooter-768x512.jpeg,116167383
wp-content/uploads/2015/02/scooter.jpeg,2450579376
wp-content/uploads/2016/11/cropped-favicon-150x150.png,1670188982
wp-content/uploads/2016/11/cropped-favicon-300x300.png,4085870090
wp-content/uploads/2016/11/cropped-favicon.png,1202644695
wp-content/uploads/2016/11/favicon-150x150.png,3917727562
wp-content/uploads/2016/11/favicon-300x300.png,280820872
wp-content/uploads/2016/11/favicon.png,2121220102
wp-includes/css/dist/block-library/style.min.css,386165071
wp-includes/js/jquery/jquery-migrate.min.js,1378048463
wp-includes/js/jquery/jquery.js,718737611
public/2018/10/28/blogging-for-fun-profit/feed/index.html,597310019
public/2018/10/28/blogging-for-fun-profit/index.html,4221419359
public/2018/10/28/index.html,649174588
public/2018/10/29/index.html,74193811
public/2018/10/29/post-comments/feed/index.html,468602805
public/2018/10/29/post-comments/index.html,1881696604
public/2018/10/30/gallery-post/feed/index.html,3541178493
public/2018/10/30/gallery-post/index.html,3299686661
public/2018/10/30/gallery-post/rasberries/index.html,3197506304
public/2018/10/30/index.html,2378151548
public/2018/10/31/index.html,3792844545
public/2018/10/31/responsive-theme/feed/index.html,594308512
public/2018/10/31/responsive-theme/index.html,302419140
public/2018/10/index.html,1822155532
public/2018/11/01/change-your-look/feed/index.html,2273934840
public/2018/11/01/change-your-look/index.html,3827292879
public/2018/11/01/index.html,4287634200
public/2018/11/02/awesome-post/berries/index.html,3310722901
public/2018/11/02/awesome-post/feed/index.html,2757766919
public/2018/11/02/awesome-post/index.html,2670256199
public/2018/11/02/index.html,1663133703
public/2018/11/03/index.html,3643395081
public/2018/11/03/standard-post/clothes/index.html,1995318431
public/2018/11/03/standard-post/feed/index.html,2283728866
public/2018/11/03/standard-post/index.html,1780879623
public/2018/11/index.html,1122818113
public/2018/index.html,1374214232
public/2019/05/05/hello-world/feed/index.html,1656079346
public/2019/05/05/hello-world/index.html,2259797526
public/2019/05/05/index.html,3189564675
public/2019/05/index.html,2888350573
public/2019/index.html,3636529046
public/about/index.html,4008476502
public/above-clouds-2/index.html,172804457
public/author/jjtroberts/index.html,3106643472
public/birds/index.html,3561021022
public/category/cooking/feed/index.html,2353926257
public/category/cooking/index.html,1319293610
public/category/cooking/page/1/index.html,1319293610
public/category/design/feed/index.html,2820031039
public/category/design/index.html,2553087970
public/category/design/page/1/index.html,2553087970
public/category/fashion/feed/index.html,3923589753
public/category/fashion/index.html,3207068338
public/category/fashion/page/1/index.html,3207068338
public/category/gaming/feed/index.html,1046357922
public/category/gaming/index.html,4279015749
public/category/gaming/page/1/index.html,4279015749
public/category/news/feed/index.html,884821463
public/category/news/index.html,3526551615
public/category/news/page/1/index.html,3526551615
public/category/travel/feed/index.html,1333464269
public/category/travel/index.html,570013075
public/category/travel/page/1/index.html,570013075
public/category/uncategorized/feed/index.html,3820745838
public/category/uncategorized/index.html,1013073177
public/category/uncategorized/page/1/index.html,1013073177
public/chillin-2/index.html,803003191
public/city-blurred-2/index.html,230789697
public/comments/feed/index.html,733880979
public/contact/index.html,2904975182
public/feed/index.html,3099987698
public/horses-2/index.html,551988516
public/index.html,3423006633
public/jellyfish-2/index.html,2100626434
public/moose-2/index.html,775145393
public/ocean/index.html,333223655
public/page/1/index.html,3423006633
public/sample-page/feed/index.html,2924426929
public/sample-page/index.html,3996937768
public/sample-page-2/index.html,3509087231
public/sample-page-2/tools/index.html,2268048294
public/scooter-2/index.html,4129376111
public/tag/blogging/feed/index.html,3729437214
public/tag/blogging/index.html,2652152406
public/tag/blogging/page/1/index.html,2652152406
public/tag/cooking/feed/index.html,3278909571
public/tag/cooking/index.html,1446562952
public/tag/cooking/page/1/index.html,1446562952
public/tag/fashion/feed/index.html,3771774720
public/tag/fashion/index.html,3275491374
public/tag/fashion/page/1/index.html,3275491374
public/tag/food/feed/index.html,2684351398
public/tag/food/index.html,387162627
public/tag/food/page/1/index.html,387162627
public/tag/foreign/feed/index.html,2725355640
public/tag/foreign/index.html,3491824001
public/tag/foreign/page/1/index.html,3491824001
public/tag/funny/feed/index.html,3773218653
public/tag/funny/index.html,2073382315
public/tag/funny/page/1/index.html,2073382315
public/tag/images/feed/index.html,1042595466
public/tag/images/index.html,3676692533
public/tag/images/page/1/index.html,3676692533
public/tag/money/feed/index.html,1388927813
public/tag/money/index.html,4267656132
public/tag/money/page/1/index.html,4267656132
public/tag/new/feed/index.html,1801612964
public/tag/new/index.html,3891378249
public/tag/new/page/1/index.html,3891378249
public/tag/random/feed/index.html,2255660380
public/tag/random/index.html,300484943
public/tag/random/page/1/index.html,300484943
public/tag/video-games/feed/index.html,1187759259
public/tag/video-games/index.html,2342271703
public/tag/video-games/page/1/index.html,2342271703
public/tag/wordpress/feed/index.html,3003929752
public/tag/wordpress/index.html,2559685227
public/tag/wordpress/page/1/index.html,2559685227
public/wp-admin/index.html,2553682819
public/wp-content/themes/author/assets/font-awesome/css/all.css,1321865964
public/wp-content/themes/author/assets/font-awesome/css/all.min.css,407499989
public/wp-content/themes/author/assets/font-awesome/css/brands.css,2313739550
public/wp-content/themes/author/assets/font-awesome/css/brands.min.css,2313739550
public/wp-content/themes/author/assets/font-awesome/css/fontawesome.css,12949211
public/wp-content/themes/author/assets/font-awesome/css/fontawesome.min.css,3121337509
public/wp-content/themes/author/assets/font-awesome/css/regular.css,4203251451
public/wp-content/themes/author/assets/font-awesome/css/regular.min.css,4203251451
public/wp-content/themes/author/assets/font-awesome/css/solid.css,2008642995
public/wp-content/themes/author/assets/font-awesome/css/solid.min.css,2008642995
public/wp-content/themes/author/assets/font-awesome/css/svg-with-js.css,3645413453
public/wp-content/themes/author/assets/font-awesome/css/svg-with-js.min.css,527954263
public/wp-content/themes/author/assets/font-awesome/css/v4-shims.css,4223590127
public/wp-content/themes/author/assets/font-awesome/css/v4-shims.min.css,965477943
public/wp-content/themes/author/assets/font-awesome/webfonts/fa-brands-400.eot,3325056665
public/wp-content/themes/author/assets/font-awesome/webfonts/fa-brands-400.svg,845689260
public/wp-content/themes/author/assets/font-awesome/webfonts/fa-brands-400.ttf,3204855177
public/wp-content/themes/author/assets/font-awesome/webfonts/fa-brands-400.woff,3132513105
public/wp-content/themes/author/assets/font-awesome/webfonts/fa-brands-400.woff2,3320007369
public/wp-content/themes/author/assets/font-awesome/webfonts/fa-regular-400.eot,2615311288
public/wp-content/themes/author/assets/font-awesome/webfonts/fa-regular-400.svg,626378496
public/wp-content/themes/author/assets/font-awesome/webfonts/fa-regular-400.ttf,3610574852
public/wp-content/themes/author/assets/font-awesome/webfonts/fa-regular-400.woff,1549072352
public/wp-content/themes/author/assets/font-awesome/webfonts/fa-regular-400.woff2,1022316642
public/wp-content/themes/author/assets/font-awesome/webfonts/fa-solid-900.eot,2851765226
public/wp-content/themes/author/assets/font-awesome/webfonts/fa-solid-900.svg,2737848094
public/wp-content/themes/author/assets/font-awesome/webfonts/fa-solid-900.ttf,3872381722
public/wp-content/themes/author/assets/font-awesome/webfonts/fa-solid-900.woff,512917657
public/wp-content/themes/author/assets/font-awesome/webfonts/fa-solid-900.woff2,4146843607
public/wp-content/themes/author/assets/images/author-pro.gif,3330217186
public/wp-content/themes/author/assets/images/background-images.png,345021692
public/wp-content/themes/author/assets/images/background-textures.png,2563453824
public/wp-content/themes/author/assets/images/bg-texture.png,247743236
public/wp-content/themes/author/assets/images/custom-colors.png,1829417726
public/wp-content/themes/author/assets/images/display-controls.png,2270216283
public/wp-content/themes/author/assets/images/featured-image-size.png,1348046322
public/wp-content/themes/author/assets/images/featured-sliders.png,3805819540
public/wp-content/themes/author/assets/images/featured-videos.png,3074986492
public/wp-content/themes/author/assets/images/fonts.png,1760174320
public/wp-content/themes/author/assets/images/footer-text.png,1197185680
public/wp-content/themes/author/assets/images/gray-lines.png,838669376
public/wp-content/themes/author/assets/images/header-image.png,359187609
public/wp-content/themes/author/assets/images/page-backgrounds.png,2405627452
public/wp-content/themes/author/assets/images/reviews.png,1931089966
public/wp-content/themes/author/assets/images/widget-areas.png,621461864
public/wp-content/themes/author/dnh/assets/js/main.js,3358185969
public/wp-content/themes/author/js/build/customizer.js,1731463529
public/wp-content/themes/author/js/build/customizer.min.js,3894609447
public/wp-content/themes/author/js/build/html5shiv.min.js,935602636
public/wp-content/themes/author/js/build/postMessage.min.js,2063066927
public/wp-content/themes/author/js/build/production.js,3386979182
public/wp-content/themes/author/js/build/production.min.js,1285826219
public/wp-content/themes/author/js/build/profile-image-uploader.min.js,940963603
public/wp-content/themes/author/js/build/respond.min.js,3777560459
public/wp-content/themes/author/js/customizer.js,237543715
public/wp-content/themes/author/js/fitvids.js,2751615338
public/wp-content/themes/author/js/functions.js,2182876584
public/wp-content/themes/author/js/html5shiv.js,3876138388
public/wp-content/themes/author/js/multiple-select.js,189564355
public/wp-content/themes/author/js/postMessage.js,3870916932
public/wp-content/themes/author/js/respond.js,1080575053
public/wp-content/themes/author/rtl.css,2628636887
public/wp-content/themes/author/rtl.min.css,739700961
public/wp-content/themes/author/screenshot.png,2076621526
public/wp-content/themes/author/style.css,2530292722
public/wp-content/themes/author/style.min.css,4247132810
public/wp-content/themes/author/styles/admin.css,612322113
public/wp-content/themes/author/styles/admin.min.css,3237213160
public/wp-content/themes/author/styles/customizer.css,3200099226
public/wp-content/themes/author/styles/customizer.min.css,125043537
public/wp-content/themes/author/styles/editor-style.css,4146831367
public/wp-content/themes/author/styles/multiple-select.png,3093576367
public/wp-content/uploads/2014/07/berries-150x150.jpg,3520321915
public/wp-content/uploads/2014/07/berries-300x225.jpg,3960354257
public/wp-content/uploads/2014/07/berries-768x576.jpg,2383186098
public/wp-content/uploads/2014/07/berries.jpg,1515713888
public/wp-content/uploads/2014/07/birds-1024x682.jpg,262036601
public/wp-content/uploads/2014/07/birds-150x150.jpg,597123708
public/wp-content/uploads/2014/07/birds-300x200.jpg,936285430
public/wp-content/uploads/2014/07/birds-768x512.jpg,489397423
public/wp-content/uploads/2014/07/birds.jpg,1497838187
public/wp-content/uploads/2014/07/boats-1024x576.jpg,1530946752
public/wp-content/uploads/2014/07/boats-150x150.jpg,795271337
public/wp-content/uploads/2014/07/boats-300x169.jpg,924054067
public/wp-content/uploads/2014/07/boats-768x432.jpg,772936007
public/wp-content/uploads/2014/07/boats.jpg,3094847162
public/wp-content/uploads/2014/07/city-3-1024x576.jpg,1611624093
public/wp-content/uploads/2014/07/city-3-150x150.jpg,3436529349
public/wp-content/uploads/2014/07/city-3-300x169.jpg,2702362290
public/wp-content/uploads/2014/07/city-3-768x432.jpg,2583803878
public/wp-content/uploads/2014/07/city-3.jpg,467519065
public/wp-content/uploads/2014/07/city-street-1024x674.jpg,361041287
public/wp-content/uploads/2014/07/city-street-150x150.jpg,1133479868
public/wp-content/uploads/2014/07/city-street-300x197.jpg,2133284945
public/wp-content/uploads/2014/07/city-street-768x505.jpg,1413859437
public/wp-content/uploads/2014/07/city-street.jpg,3669656362
public/wp-content/uploads/2014/07/clothes-1024x682.jpg,1021233874
public/wp-content/uploads/2014/07/clothes-150x150.jpg,2123625708
public/wp-content/uploads/2014/07/clothes-300x200.jpg,3953001614
public/wp-content/uploads/2014/07/clothes-768x512.jpg,293067936
public/wp-content/uploads/2014/07/clothes.jpg,1555167084
public/wp-content/uploads/2014/07/logs-1024x686.jpg,2809516456
public/wp-content/uploads/2014/07/logs-150x150.jpg,732642322
public/wp-content/uploads/2014/07/logs-300x201.jpg,418400728
public/wp-content/uploads/2014/07/logs-768x514.jpg,268225042
public/wp-content/uploads/2014/07/logs.jpg,1229747778
public/wp-content/uploads/2014/07/ocean-1024x682.jpg,1288503319
public/wp-content/uploads/2014/07/ocean-150x150.jpg,3721811138
public/wp-content/uploads/2014/07/ocean-300x200.jpg,72037312
public/wp-content/uploads/2014/07/ocean-768x512.jpg,583885612
public/wp-content/uploads/2014/07/ocean.jpg,203152570
public/wp-content/uploads/2014/07/pier-1024x680.jpg,638134471
public/wp-content/uploads/2014/07/pier-150x150.jpg,4272774559
public/wp-content/uploads/2014/07/pier-300x199.jpg,2727806155
public/wp-content/uploads/2014/07/pier-768x510.jpg,2907391203
public/wp-content/uploads/2014/07/pier.jpg,1571775184
public/wp-content/uploads/2014/07/puppy-1024x613.jpg,1512684854
public/wp-content/uploads/2014/07/puppy-150x150.jpg,3701278333
public/wp-content/uploads/2014/07/puppy-300x180.jpg,1444339282
public/wp-content/uploads/2014/07/puppy-768x460.jpg,1007471816
public/wp-content/uploads/2014/07/puppy.jpg,222096271
public/wp-content/uploads/2014/07/rasberries-1024x576.jpg,3457884219
public/wp-content/uploads/2014/07/rasberries-150x150.jpg,3367747933
public/wp-content/uploads/2014/07/rasberries-300x169.jpg,558078638
public/wp-content/uploads/2014/07/rasberries-768x432.jpg,2179288708
public/wp-content/uploads/2014/07/rasberries.jpg,1364252101
public/wp-content/uploads/2014/07/teapot-1024x668.jpg,2823712555
public/wp-content/uploads/2014/07/teapot-150x150.jpg,3511071908
public/wp-content/uploads/2014/07/teapot-300x196.jpg,3683868426
public/wp-content/uploads/2014/07/teapot-768x501.jpg,671533402
public/wp-content/uploads/2014/07/teapot.jpg,254297672
public/wp-content/uploads/2014/07/tools-1024x682.jpg,2488636574
public/wp-content/uploads/2014/07/tools-150x150.jpg,2433522296
public/wp-content/uploads/2014/07/tools-300x200.jpg,4225438489
public/wp-content/uploads/2014/07/tools-768x512.jpg,487963773
public/wp-content/uploads/2014/07/tools.jpg,2342954625
public/wp-content/uploads/2015/02/above-clouds-1024x683.jpeg,621629831
public/wp-content/uploads/2015/02/above-clouds-150x150.jpeg,656155106
public/wp-content/uploads/2015/02/above-clouds-300x200.jpeg,1170747211
public/wp-content/uploads/2015/02/above-clouds-768x512.jpeg,3127049116
public/wp-content/uploads/2015/02/above-clouds.jpeg,2997128384
public/wp-content/uploads/2015/02/alley-dusk-1024x683.jpeg,446458501
public/wp-content/uploads/2015/02/alley-dusk-150x150.jpeg,3397129306
public/wp-content/uploads/2015/02/alley-dusk-300x200.jpeg,179569291
public/wp-content/uploads/2015/02/alley-dusk-768x512.jpeg,122881176
public/wp-content/uploads/2015/02/alley-dusk.jpeg,2937949181
public/wp-content/uploads/2015/02/chillin-1024x680.jpeg,2345266866
public/wp-content/uploads/2015/02/chillin-150x150.jpeg,3201367778
public/wp-content/uploads/2015/02/chillin-300x199.jpeg,3913244482
public/wp-content/uploads/2015/02/chillin-768x510.jpeg,3015540436
public/wp-content/uploads/2015/02/chillin.jpeg,3270681495
public/wp-content/uploads/2015/02/city-blurred-1024x681.jpeg,2692797764
public/wp-content/uploads/2015/02/city-blurred-150x150.jpeg,3378015991
public/wp-content/uploads/2015/02/city-blurred-300x200.jpeg,2700786420
public/wp-content/uploads/2015/02/city-blurred-768x511.jpeg,1030112993
public/wp-content/uploads/2015/02/city-blurred.jpeg,2500783396
public/wp-content/uploads/2015/02/forest-1024x683.jpeg,103265172
public/wp-content/uploads/2015/02/forest-150x150.jpeg,3050524970
public/wp-content/uploads/2015/02/forest-300x200.jpeg,2058000183
public/wp-content/uploads/2015/02/forest-768x512.jpeg,292555177
public/wp-content/uploads/2015/02/forest.jpeg,2579450162
public/wp-content/uploads/2015/02/horses-1024x684.jpeg,3327687132
public/wp-content/uploads/2015/02/horses-150x150.jpeg,1342610873
public/wp-content/uploads/2015/02/horses-300x200.jpeg,1317089516
public/wp-content/uploads/2015/02/horses-768x513.jpeg,2145440736
public/wp-content/uploads/2015/02/horses.jpeg,3787322004
public/wp-content/uploads/2015/02/jellyfish-1024x682.jpeg,2876294954
public/wp-content/uploads/2015/02/jellyfish-150x150.jpeg,372425731
public/wp-content/uploads/2015/02/jellyfish-300x200.jpeg,3684569487
public/wp-content/uploads/2015/02/jellyfish-768x512.jpeg,3736493897
public/wp-content/uploads/2015/02/jellyfish.jpeg,2184255196
public/wp-content/uploads/2015/02/logo-neue-website-white-150x32.png,616575869
public/wp-content/uploads/2015/02/logo-neue-website-white.png,1783350298
public/wp-content/uploads/2015/02/moose-1024x683.jpeg,338633215
public/wp-content/uploads/2015/02/moose-150x150.jpeg,2863432822
public/wp-content/uploads/2015/02/moose-300x200.jpeg,896333021
public/wp-content/uploads/2015/02/moose-768x512.jpeg,866175510
public/wp-content/uploads/2015/02/moose.jpeg,3826653440
public/wp-content/uploads/2015/02/ocean-cliff-1024x683.jpeg,2745074691
public/wp-content/uploads/2015/02/ocean-cliff-150x150.jpeg,3893988000
public/wp-content/uploads/2015/02/ocean-cliff-300x200.jpeg,667185665
public/wp-content/uploads/2015/02/ocean-cliff-768x512.jpeg,3378284889
public/wp-content/uploads/2015/02/ocean-cliff.jpeg,1372434063
public/wp-content/uploads/2015/02/purple-volcano-1024x683.jpeg,234245217
public/wp-content/uploads/2015/02/purple-volcano-150x150.jpeg,3864292138
public/wp-content/uploads/2015/02/purple-volcano-300x200.jpeg,502335401
public/wp-content/uploads/2015/02/purple-volcano-768x512.jpeg,1950097372
public/wp-content/uploads/2015/02/purple-volcano.jpeg,3342130174
public/wp-content/uploads/2015/02/scooter-1024x683.jpeg,111070540
public/wp-content/uploads/2015/02/scooter-150x150.jpeg,3813466683
public/wp-content/uploads/2015/02/scooter-300x200.jpeg,4280198514
public/wp-content/uploads/2015/02/scooter-768x512.jpeg,116167383
public/wp-content/uploads/2015/02/scooter.jpeg,2450579376
public/wp-content/uploads/2016/11/cropped-favicon-150x150.png,1670188982
public/wp-content/uploads/2016/11/cropped-favicon-300x300.png,4085870090
public/wp-content/uploads/2016/11/cropped-favicon.png,1202644695
public/wp-content/uploads/2016/11/favicon-150x150.png,3917727562
public/wp-content/uploads/2016/11/favicon-300x300.png,280820872
public/wp-content/uploads/2016/11/favicon.png,2121220102
public/wp-includes/css/dist/block-library/style.min.css,386165071
public/wp-includes/js/jquery/jquery-migrate.min.js,1378048463
public/wp-includes/js/jquery/jquery.js,718737611
